┌────────┬────────────┬──────────────────────┐
│  prcp  │    date    │   moving_avg_prcp    │
│ double │    date    │        double        │
├────────┼────────────┼──────────────────────┤
│   0.84 │ 2013-07-01 │                      │
│   0.08 │ 2013-07-02 │                      │
│   0.53 │ 2013-07-03 │                      │
│    0.0 │ 2013-07-04 │  0.20714285714285713 │
│    0.0 │ 2013-07-05 │  0.11857142857142856 │
│    0.0 │ 2013-07-06 │  0.13999999999999999 │
│    0.0 │ 2013-07-07 │   0.0642857142857143 │
│   0.22 │ 2013-07-08 │   0.0642857142857143 │
│   0.23 │ 2013-07-09 │  0.09999999999999999 │
│    0.0 │ 2013-07-10 │  0.10857142857142857 │
│    0.0 │ 2013-07-11 │  0.10857142857142857 │
│   0.25 │ 2013-07-12 │  0.07714285714285715 │
│   0.06 │ 2013-07-13 │  0.04428571428571428 │
│    0.0 │ 2013-07-14 │  0.04428571428571428 │
│    0.0 │ 2013-07-15 │  0.04428571428571428 │
│    0.0 │ 2013-07-16 │ 0.008571428571428572 │
│    0.0 │ 2013-07-17 │                  0.0 │
│    0.0 │ 2013-07-18 │                  0.0 │
│    0.0 │ 2013-07-19 │ 0.008571428571428572 │
│    0.0 │ 2013-07-20 │  0.05285714285714286 │
│     ·  │     ·      │            ·         │
│     ·  │     ·      │            ·         │
│     ·  │     ·      │            ·         │
│    0.0 │ 2021-08-12 │   0.1442857142857143 │
│    0.0 │ 2021-08-13 │   0.1442857142857143 │
│    0.0 │ 2021-08-14 │ 0.025714285714285714 │
│    0.0 │ 2021-08-15 │                  0.0 │
│    0.0 │ 2021-08-16 │ 0.028571428571428574 │
│    0.0 │ 2021-08-17 │ 0.028571428571428574 │
│    0.0 │ 2021-08-18 │   0.6642857142857144 │
│    0.2 │ 2021-08-19 │   1.0457142857142858 │
│    0.0 │ 2021-08-20 │   1.1985714285714286 │
│   4.45 │ 2021-08-21 │   1.1985714285714286 │
│   2.67 │ 2021-08-22 │   1.1985714285714286 │
│   1.07 │ 2021-08-23 │                 1.17 │
│    0.0 │ 2021-08-24 │   1.2657142857142858 │
│    0.0 │ 2021-08-25 │                 0.63 │
│    0.0 │ 2021-08-26 │   0.2485714285714286 │
│   0.67 │ 2021-08-27 │  0.09571428571428572 │
│    0.0 │ 2021-08-28 │  0.09571428571428572 │
│    0.0 │ 2021-08-29 │                      │
│    0.0 │ 2021-08-30 │                      │
│    0.0 │ 2021-08-31 │                      │
├────────┴────────────┴──────────────────────┤
│ 2984 rows (40 shown)             3 columns │
└────────────────────────────────────────────┘
