┌─────────┬─────────────────────┬─────────────────────┬──────────────┬──────────────┬──────────────┬──────────────┐
│  type   │   pickup_datetime   │  dropOff_datetime   │ duration_min │ duration_sec │ PUlocationID │ DOlocationID │
│ varchar │      timestamp      │      timestamp      │    int64     │    int64     │    double    │    double    │
├─────────┼─────────────────────┼─────────────────────┼──────────────┼──────────────┼──────────────┼──────────────┤
│ fhv     │ 2020-01-01 00:02:00 │ 2020-01-01 00:16:00 │           14 │          840 │              │              │
│ fhv     │ 2020-01-01 00:05:22 │ 2020-01-01 00:16:38 │           11 │          676 │              │        116.0 │
│ fhv     │ 2020-01-01 00:05:40 │ 2020-01-01 00:09:24 │            4 │          224 │              │         61.0 │
│ fhv     │ 2020-01-01 00:05:42 │ 2020-01-01 00:35:42 │           30 │         1800 │              │              │
│ fhv     │ 2020-01-01 00:06:00 │ 2020-01-01 00:35:00 │           29 │         1740 │              │              │
│ fhv     │ 2020-01-01 00:07:18 │ 2020-01-01 00:18:46 │           11 │          688 │              │         89.0 │
│ fhv     │ 2020-01-01 00:07:48 │ 2020-01-01 00:07:51 │            0 │            3 │              │         89.0 │
│ fhv     │ 2020-01-01 00:10:38 │ 2020-01-01 00:40:38 │           30 │         1800 │              │              │
│ fhv     │ 2020-01-01 00:12:17 │ 2020-01-01 00:54:26 │           42 │         2529 │              │              │
│ fhv     │ 2020-01-01 00:13:34 │ 2020-01-01 00:33:21 │           20 │         1187 │              │        133.0 │
│ fhv     │ 2020-01-01 00:15:00 │ 2020-01-01 00:45:00 │           30 │         1800 │              │              │
│ fhv     │ 2020-01-01 00:15:08 │ 2020-01-01 00:37:09 │           22 │         1321 │              │         14.0 │
│ fhv     │ 2020-01-01 00:16:00 │ 2020-01-01 00:47:00 │           31 │         1860 │              │              │
│ fhv     │ 2020-01-01 00:17:00 │ 2020-01-01 00:56:00 │           39 │         2340 │              │              │
│ fhv     │ 2020-01-01 00:17:05 │ 2020-01-01 00:35:55 │           18 │         1130 │              │        227.0 │
│ fhv     │ 2020-01-01 00:18:31 │ 2020-01-01 00:36:44 │           18 │         1093 │              │         61.0 │
│ fhv     │ 2020-01-01 00:18:37 │ 2020-01-01 00:48:37 │           30 │         1800 │              │              │
│ fhv     │ 2020-01-01 00:18:52 │ 2020-01-01 00:25:36 │            7 │          404 │              │         71.0 │
│ fhv     │ 2020-01-01 00:22:00 │ 2020-01-01 01:10:00 │           48 │         2880 │              │              │
│ fhv     │ 2020-01-01 00:23:22 │ 2020-01-01 00:29:13 │            6 │          351 │              │        228.0 │
│  ·      │          ·          │          ·          │            · │           ·  │      ·       │          ·   │
│  ·      │          ·          │          ·          │            · │           ·  │      ·       │          ·   │
│  ·      │          ·          │          ·          │            · │           ·  │      ·       │          ·   │
│ fhv     │ 2021-12-31 23:57:20 │ 2022-01-01 00:19:24 │           22 │         1324 │              │        177.0 │
│ fhv     │ 2021-12-31 23:57:30 │ 2022-01-01 00:18:26 │           21 │         1256 │              │        260.0 │
│ fhv     │ 2021-12-31 23:57:36 │ 2022-01-01 00:12:40 │           15 │          904 │              │         36.0 │
│ fhv     │ 2021-12-31 23:57:46 │ 2022-01-01 00:17:28 │           20 │         1182 │              │         94.0 │
│ fhv     │ 2021-12-31 23:57:59 │ 2022-01-01 00:19:00 │           22 │         1261 │              │         39.0 │
│ fhv     │ 2021-12-31 23:58:00 │ 2022-01-01 00:13:00 │           15 │          900 │              │              │
│ fhv     │ 2021-12-31 23:58:01 │ 2022-01-01 00:03:52 │            5 │          351 │              │        247.0 │
│ fhv     │ 2021-12-31 23:58:13 │ 2022-01-01 00:13:17 │           15 │          904 │              │        157.0 │
│ fhv     │ 2021-12-31 23:58:13 │ 2022-01-01 00:13:17 │           15 │          904 │              │        157.0 │
│ fhv     │ 2021-12-31 23:58:39 │ 2022-01-01 00:12:44 │           14 │          845 │              │        260.0 │
│ fhv     │ 2021-12-31 23:58:43 │ 2022-01-01 00:04:10 │            6 │          327 │              │        244.0 │
│ fhv     │ 2021-12-31 23:59:08 │ 2022-01-01 00:17:52 │           18 │         1124 │              │         35.0 │
│ fhv     │ 2021-12-31 23:59:15 │ 2022-01-01 00:15:55 │           16 │         1000 │              │         18.0 │
│ fhv     │ 2021-12-31 23:59:17 │ 2022-01-01 00:14:14 │           15 │          897 │              │        220.0 │
│ fhv     │ 2021-12-31 23:59:23 │ 2022-01-01 00:18:28 │           19 │         1145 │              │         76.0 │
│ fhv     │ 2021-12-31 23:59:26 │ 2022-01-01 00:18:57 │           19 │         1171 │              │        263.0 │
│ fhv     │ 2021-12-31 23:59:29 │ 2022-01-01 00:10:35 │           11 │          666 │              │         67.0 │
│ fhv     │ 2021-12-31 23:59:46 │ 2022-01-01 00:19:15 │           20 │         1169 │              │        155.0 │
│ fhv     │ 2021-12-31 23:59:50 │ 2022-01-01 00:04:34 │            5 │          284 │              │        254.0 │
│ fhv     │ 2021-12-31 23:59:52 │ 2022-01-01 00:55:54 │           56 │         3362 │              │        265.0 │
├─────────┴─────────────────────┴─────────────────────┴──────────────┴──────────────┴──────────────┴──────────────┤
│ 15679790 rows (40 shown)                                                                              7 columns │
└─────────────────────────────────────────────────────────────────────────────────────────────────────────────────┘
